﻿[
  {
    "outputFile": "Content/css/styles.css",
    "inputFile": "Content/css/styles.scss"
  },
  {
    "outputFile": "Content/Widgets/AdminFunctionsWidget/_admin-functions.css",
    "inputFile": "Content/Widgets/AdminFunctionsWidget/_admin-functions.scss"
  },
  {
    "outputFile": "Content/Widgets/PayInvoiceWidget/_pay-invoice.css",
    "inputFile": "Content/Widgets/PayInvoiceWidget/_pay-invoice.scss"
  },
  {
    "outputFile": "Content/Widgets/ReportsWidget/_reports.css",
    "inputFile": "Content/Widgets/ReportsWidget/_reports.scss"
  },
  {
    "outputFile": "Content/Widgets/ChangePasswordWidget/_change-password.css",
    "inputFile": "Content/Widgets/ChangePasswordWidget/_change-password.scss"
  },
  {
    "outputFile": "Content/Widgets/ApproveFacilitiesWidget/_approve-facilities.css",
    "inputFile": "Content/Widgets/ApproveFacilitiesWidget/_approve-facilities.scss"
  },
  {
    "outputFile": "Content/Widgets/EventLogWidget/_event-log.css",
    "inputFile": "Content/Widgets/EventLogWidget/_event-log.scss"
  },
  {
    "outputFile": "Content/Widgets/SpeechPreferencesWidget/_speech-preferences.css",
    "inputFile": "Content/Widgets/SpeechPreferencesWidget/_speech-preferences.scss"
  },
  {
    "outputFile": "Content/Widgets/ManageCorporationsWidget/_manage-corporations.css",
    "inputFile": "Content/Widgets/ManageCorporationsWidget/_manage-corporations.scss"
  },
  {
    "outputFile": "Content/Widgets/ManageFacilitiesWidget/_manage-facilities.css",
    "inputFile": "Content/Widgets/ManageFacilitiesWidget/_manage-facilities.scss"
  },
  {
    "outputFile": "Content/Widgets/PersonalInfoWidget/_personal-info.css",
    "inputFile": "Content/Widgets/PersonalInfoWidget/_personal-info.scss"
  },
  {
    "outputFile": "Content/Widgets/CourseInfoWidget/_course-info.css",
    "inputFile": "Content/Widgets/CourseInfoWidget/_course-info.scss"
  },
  {
    "outputFile": "Content/Widgets/Shared/main.css",
    "inputFile": "Content/Widgets/Shared/main.scss"
  },
  {
    "outputFile": "Content/Widgets/InfoSectionWidget/_info-section.css",
    "inputFile": "Content/Widgets/InfoSectionWidget/_info-section.scss"
  }
]